Code/Final/cpu_waveform.vcd
$date
	Sun Nov 23 18:46:50 2025
$end
$version
	Icarus Verilog
$end
$timescale
	1ps
$end
$scope module tb_load_and_run $end
$var wire 32 ! reges [31:0] $end
$var wire 6 " pc_o [5:0] $end
$var wire 1 # pc_mux_o $end
$var wire 5 $ opi_o [4:0] $end
$var wire 27 % opcode_output [26:0] $end
$var wire 16 & instr_o [15:0] $end
$var wire 1 ' im_write_o $end
$var wire 4 ( flags_out [3:0] $end
$var wire 128 ) data [127:0] $end
$var wire 8 * alu_result [7:0] $end
$var reg 1 + clk $end
$var reg 1 , rst $end
$var reg 16 - switches [15:0] $end
$scope module uut $end
$var wire 8 . alu_res_o [7:0] $end
$var wire 1 + clk $end
$var wire 128 / data [127:0] $end
$var wire 4 0 flags_out [3:0] $end
$var wire 1 ' im_write_o $end
$var wire 16 1 instr_o [15:0] $end
$var wire 27 2 opcode_output [26:0] $end
$var wire 5 3 opi_o [4:0] $end
$var wire 1 # pc_mux_o $end
$var wire 6 4 pc_o [5:0] $end
$var wire 1 , rst $end
$var wire 16 5 switches [15:0] $end
$var wire 32 6 reges [31:0] $end
$var wire 1 7 reg_writeback_mux $end
$var wire 2 8 reg_write_sel [1:0] $end
$var wire 1 9 reg_write_en $end
$var wire 8 : reg_wdata [7:0] $end
$var wire 2 ; reg_port1_sel [1:0] $end
$var wire 2 < reg_port0_sel [1:0] $end
$var wire 8 = reg_out_p1 [7:0] $end
$var wire 8 > reg_out_p0 [7:0] $end
$var wire 1 ? pc_we $end
$var wire 1 @ pc_mux $end
$var wire 6 A pc [5:0] $end
$var wire 5 B opi_O [4:0] $end
$var wire 27 C opcode [26:0] $end
$var wire 16 D instr [15:0] $end
$var wire 1 E im_write $end
$var wire 4 F flags_r [3:0] $end
$var wire 4 G flags [3:0] $end
$var wire 1 H flag_write_en $end
$var wire 1 I dmem_write_en $end
$var wire 8 J dmem_wdata8 [7:0] $end
$var wire 8 K dmem_rdata8 [7:0] $end
$var wire 1 L dmem_input_mux $end
$var wire 128 M data_led [127:0] $end
$var wire 1 N alu_src_mux $end
$var wire 1 O alu_result_mux $end
$var wire 8 P alu_result8 [7:0] $end
$var wire 8 Q alu_result [7:0] $end
$var wire 2 R alu_op [1:0] $end
$var wire 8 S alu_b [7:0] $end
$scope module alu_inst $end
$var wire 8 T b [7:0] $end
$var wire 1 U zero $end
$var wire 2 V op [1:0] $end
$var wire 1 W negative $end
$var wire 8 X a [7:0] $end
$var reg 8 Y a_u [7:0] $end
$var reg 8 Z b_u [7:0] $end
$var reg 1 [ carry $end
$var reg 1 \ carry_s $end
$var reg 1 ] ov_s $end
$var reg 1 ^ overflow $end
$var reg 8 _ res_u [7:0] $end
$var reg 8 ` result [7:0] $end
$var reg 9 a tmp [8:0] $end
$upscope $end
$scope module control_unit $end
$var wire 5 b opi_o [4:0] $end
$var wire 2 c y [1:0] $end
$var wire 2 d x [1:0] $end
$var wire 5 e opi [4:0] $end
$var wire 27 f opcode [26:0] $end
$var wire 23 g op [22:0] $end
$var wire 31 h inp [30:0] $end
$var wire 4 i flags [3:0] $end
$var reg 2 j alu_op [1:0] $end
$var reg 1 O alu_result_mux $end
$var reg 1 N alu_src_mux $end
$var reg 1 L dmem_input_mux $end
$var reg 1 I dmem_write_en $end
$var reg 1 H flag_write_en $end
$var reg 1 E imem_we $end
$var reg 1 @ pc_mux $end
$var reg 1 ? pc_we $end
$var reg 2 k reg_port0_sel [1:0] $end
$var reg 2 l reg_port1_sel [1:0] $end
$var reg 1 9 reg_write_en $end
$var reg 2 m reg_write_sel [1:0] $end
$var reg 1 7 reg_writeback_mux $end
$scope module encoder_inst $end
$var wire 31 n in_vec [30:0] $end
$var reg 5 o code [4:0] $end
$var reg 1 p found $end
$var integer 32 q i [31:0] $end
$upscope $end
$upscope $end
$scope module decoder $end
$var wire 8 r instr [7:0] $end
$var wire 27 s opcode [26:0] $end
$var wire 1 t en3 $end
$var wire 1 u en2 $end
$var wire 1 v en1 $end
$var wire 16 w dec1_out [15:0] $end
$scope module decoder_1 $end
$var wire 1 x en $end
$var wire 4 y w [3:0] $end
$var reg 16 z y [15:0] $end
$upscope $end
$scope module decoder_2 $end
$var wire 1 v en $end
$var wire 2 { w [1:0] $end
$var reg 4 | y [3:0] $end
$upscope $end
$scope module decoder_3 $end
$var wire 1 u en $end
$var wire 1 } w $end
$var reg 2 ~ y [1:0] $end
$upscope $end
$scope module decoder_4 $end
$var wire 1 t en $end
$var wire 2 !" w [1:0] $end
$var reg 4 "" y [3:0] $end
$upscope $end
$upscope $end
$scope module dmem $end
$var wire 4 #" addr [3:0] $end
$var wire 1 + clk $end
$var wire 8 $" data_in [7:0] $end
$var wire 8 %" data_out [7:0] $end
$var wire 1 I write_enable $end
$var wire 128 &" data_led [127:0] $end
$scope begin LED_PACK[0] $end
$upscope $end
$scope begin LED_PACK[1] $end
$upscope $end
$scope begin LED_PACK[2] $end
$upscope $end
$scope begin LED_PACK[3] $end
$upscope $end
$scope begin LED_PACK[4] $end
$upscope $end
$scope begin LED_PACK[5] $end
$upscope $end
$scope begin LED_PACK[6] $end
$upscope $end
$scope begin LED_PACK[7] $end
$upscope $end
$scope begin LED_PACK[8] $end
$upscope $end
$scope begin LED_PACK[9] $end
$upscope $end
$scope begin LED_PACK[10] $end
$upscope $end
$scope begin LED_PACK[11] $end
$upscope $end
$scope begin LED_PACK[12] $end
$upscope $end
$scope begin LED_PACK[13] $end
$upscope $end
$scope begin LED_PACK[14] $end
$upscope $end
$scope begin LED_PACK[15] $end
$upscope $end
$upscope $end
$scope module flag $end
$var wire 1 H c14 $end
$var wire 1 '" carry $end
$var wire 1 + clk $end
$var wire 1 (" negative $end
$var wire 1 )" overflow $end
$var wire 1 *" zero $end
$var wire 4 +" y [3:0] $end
$var reg 1 ," tcarryflag $end
$var reg 1 -" tnegativeflag $end
$var reg 1 ." toverflowflag $end
$var reg 1 /" tzeroflag $end
$upscope $end
$scope module imem $end
$var wire 1 + clk $end
$var wire 6 0" write_addr [5:0] $end
$var wire 16 1" write_data [15:0] $end
$var wire 1 E write_enable $end
$var wire 6 2" addr [5:0] $end
$var reg 16 3" data_out [15:0] $end
$var integer 32 4" i [31:0] $end
$upscope $end
$scope module pc_inst $end
$var wire 1 + clk $end
$var wire 6 5" load_val [5:0] $end
$var wire 1 @ pc_mux $end
$var wire 1 ? pc_we $end
$var wire 1 , rst $end
$var wire 6 6" pc_out [5:0] $end
$var reg 6 7" pc_reg [5:0] $end
$upscope $end
$scope module regs_inst $end
$var wire 1 + clk $end
$var wire 8 8" out0 [7:0] $end
$var wire 8 9" out1 [7:0] $end
$var wire 2 :" port0_sel [1:0] $end
$var wire 2 ;" port1_sel [1:0] $end
$var wire 8 <" reges_0 [7:0] $end
$var wire 8 =" reges_1 [7:0] $end
$var wire 8 >" reges_2 [7:0] $end
$var wire 8 ?" reges_3 [7:0] $end
$var wire 1 , rst $end
$var wire 8 @" write_data [7:0] $end
$var wire 1 9 write_en $end
$var wire 2 A" write_sel [1:0] $end
$upscope $end
$upscope $end
$upscope $end
$enddefinitions $end
#0
$dumpvars
b0 A"
b0 @"
b0 ?"
b0 >"
b0 ="
b0 <"
b0 ;"
b0 :"
b0 9"
b0 8"
b0 7"
b0 6"
b0 5"
b1000000 4"
b0 3"
b0 2"
b0 1"
b0 0"
0/"
0."
0-"
0,"
b0 +"
1*"
0)"
0("
0'"
b1110000100000000101000001000000011000000001000000100000001100000111 &"
b111 %"
b0 $"
b0 #"
b0 ""
b0 !"
b0 ~
0}
b0 |
b0 {
b1 z
b0 y
1x
b1 w
0v
0u
0t
b1 s
b0 r
b11111111111111111111111111111111 q
1p
b0 o
b1 n
b0 m
b0 l
b0 k
b0 j
b0 i
b1 h
b1 g
b1 f
b0 e
b0 d
b0 c
b0 b
bx a
b0 `
b0 _
0^
0]
0\
0[
b0 Z
b0 Y
b0 X
0W
b0 V
1U
b0 T
b0 S
b0 R
b0 Q
b0 P
0O
0N
b1110000100000000101000001000000011000000001000000100000001100000111 M
0L
b111 K
b0 J
0I
0H
b1 G
b0 F
0E
b0 D
b1 C
b0 B
b0 A
0@
1?
b0 >
b0 =
b0 <
b0 ;
b0 :
09
b0 8
07
b0 6
b0 5
b0 4
b0 3
b1 2
b0 1
b0 0
b1110000100000000101000001000000011000000001000000100000001100000111 /
b0 .
b0 -
1,
0+
b0 *
b1110000100000000101000001000000011000000001000000100000001100000111 )
b0 (
0'
b0 &
b1 %
b0 $
0#
b0 "
b0 !
$end
#10000
1+
#20000
0+
#30000
1+
#40000
0+
#50000
1#
1@
b10010 $
b10010 3
b10010 B
b10010 b
b10010 e
b10010 o
b11111111111111111111111111111111 q
1p
b1000000000000000000 h
b1000000000000000000 n
b1000000000000000000 g
b1000000000000000000 %
b1000000000000000000 2
b1000000000000000000 C
b1000000000000000000 f
b1000000000000000000 s
b100000000000000 w
b100000000000000 z
b1110 y
b11100000 r
b11110 5"
b1110000000011110 &
b1110000000011110 1
b1110000000011110 D
b1110000000011110 3"
b1 "
b1 4
b1 A
b1 2"
b1 6"
b1 7"
1+
0,
#60000
0+
#70000
1O
19
0#
0@
b11111111111111111111111111111111 q
b110 $
b110 3
b110 B
b110 b
b110 e
b110 o
1p
b1000000 h
b1000000 n
b1000000 g
b1000000 %
b1000000 2
b1000000 C
b1000000 f
b1000000 s
b1000 w
b1000 z
b11 y
b110000 r
b0 5"
b11000000000000 &
b11000000000000 1
b11000000000000 D
b11000000000000 3"
b100000 "
b100000 4
b100000 A
b100000 2"
b100000 6"
b100000 7"
1+
#80000
0+
#90000
17
b11111111111111111111111111111111 q
b1011 $
b1011 3
b1011 B
b1011 b
b1011 e
b1011 o
1p
b100000000000 h
b100000000000 n
b100000000000 g
b11 8
b11 m
b11 A"
1O
19
b111 :
b111 @"
b1000 #"
b1000 0"
b100000000 w
b100000000 z
b11 d
b1000 *
b1000 .
b1000 Q
b1000 y
b110000000000000100000000000 %
b110000000000000100000000000 2
b110000000000000100000000000 C
b110000000000000100000000000 f
b110000000000000100000000000 s
b10001100 r
b1000 5"
b1000110000001000 &
b1000110000001000 1
b1000110000001000 D
b1000110000001000 3"
b100001 "
b100001 4
b100001 A
b100001 2"
b100001 6"
b100001 7"
1+
#100000
b111000000000000000000000000 !
b111000000000000000000000000 6
b111 ?"
0+
#110000
b0 :
b0 @"
b11111111111111111111111111111111 q
b110 $
b110 3
b110 B
b110 b
b110 e
b110 o
1p
b1000000 h
b1000000 n
b1000000 g
07
1O
19
b1 8
b1 m
b1 A"
b0 #"
b0 0"
b1000 w
b1000 z
b1 d
b0 *
b0 .
b0 Q
b11 y
b10000000000000000001000000 %
b10000000000000000001000000 2
b10000000000000000001000000 C
b10000000000000000001000000 f
b10000000000000000001000000 s
b110100 r
b0 5"
b11010000000000 &
b11010000000000 1
b11010000000000 D
b11010000000000 3"
b100010 "
b100010 4
b100010 A
b100010 2"
b100010 6"
b100010 7"
1+
#120000
0+
#130000
b11111001 :
b11111001 @"
b0 K
b0 %"
b1001 #"
b111001 0"
1'"
b11111001 *
b11111001 .
b11111001 Q
1("
1[
b11111001 P
b11111001 `
1W
0*"
1\
b1010 G
0U
b11111001 _
b111111001 a
b111 Z
b111 J
b111 $"
b111 S
b111 T
1H
b11 R
b11 V
b11 j
b111 =
b111 9"
b11 ;
b11 l
b11 ;"
b11111111111111111111111111111111 q
b10001 $
b10001 3
b10001 B
b10001 b
b10001 e
b10001 o
1p
b100000000000000000 h
b100000000000000000 n
b100000000000000000 g
0O
09
b0 8
b0 m
b0 A"
b10000000000000 w
b10000000000000 z
b0 d
b11 c
b1101 y
b11 {
1}
b11 !"
b1100000100000000000000000 %
b1100000100000000000000000 2
b1100000100000000000000000 C
b1100000100000000000000000 f
b1100000100000000000000000 s
b11010011 r
b1101001100000000 &
b1101001100000000 1
b1101001100000000 D
b1101001100000000 3"
b100011 "
b100011 4
b100011 A
b100011 2"
b100011 6"
b100011 7"
1+
#140000
b1010 G
0U
b11111001 _
1\
1H
b11 R
b11 V
b11 j
b111 =
b111 9"
b11 ;
b11 l
b11 ;"
1-"
b1010 (
b1010 0
b1010 F
b1010 i
b1010 +"
1,"
0+
#150000
b0 :
b0 @"
b111 K
b111 %"
b0 #"
b0 0"
0("
0'"
b0 *
b0 .
b0 Q
0W
1*"
0[
b0 P
b0 `
b1 G
1U
b0 _
0\
b0 Z
b0 J
b0 $"
b0 S
b0 T
0H
b0 R
b0 V
b0 j
b0 =
b0 9"
b0 ;
b0 l
b0 ;"
b11111111111111111111111111111111 q
b10110 $
b10110 3
b10110 B
b10110 b
b10110 e
b10110 o
1p
b1000 ""
b10000000000000000000000 h
b10000000000000000000000 n
b10000000000000000000000 g
1t
b1110000000000000000000000 %
b1110000000000000000000000 2
b1110000000000000000000000 C
b1110000000000000000000000 f
b1110000000000000000000000 s
b1000000000000000 w
b1000000000000000 z
b1111 y
b11110011 r
b1110 5"
b1111001100001110 &
b1111001100001110 1
b1111001100001110 D
b1111001100001110 3"
b100100 "
b100100 4
b100100 A
b100100 2"
b100100 6"
b100100 7"
1+
#160000
0+
#170000
b1000 #"
b1000 0"
b111 :
b111 @"
b1000 *
b1000 .
b1000 Q
17
1O
19
b11 8
b11 m
b11 A"
b11111111111111111111111111111111 q
b1011 $
b1011 3
b1011 B
b1011 b
b1011 e
b1011 o
1p
0t
b100000000000 h
b100000000000 n
b100000000000 g
b100000000 w
b100000000 z
b0 ""
b11 d
b0 c
b1000 y
b0 {
0}
b0 !"
b110000000000000100000000000 %
b110000000000000100000000000 2
b110000000000000100000000000 C
b110000000000000100000000000 f
b110000000000000100000000000 s
b10001100 r
b1000 5"
b1000110000001000 &
b1000110000001000 1
b1000110000001000 D
b1000110000001000 3"
b100101 "
b100101 4
b100101 A
b100101 2"
b100101 6"
b100101 7"
1+
#180000
0+
#190000
b1000 K
b1000 %"
b111 P
b111 `
0*"
b111 :
b111 @"
b0 G
0U
b111 _
b111 a
b111 Y
1H
b11 R
b11 V
b11 j
b111 >
b111 X
b111 8"
b11 <
b11 k
b11 :"
07
0O
19
b11 8
b11 m
b11 A"
b11111111111111111111111111111111 q
b1001 $
b1001 3
b1001 B
b1001 b
b1001 e
b1001 o
1p
b1000000000 h
b1000000000 n
b1000000000 g
b110000000000000001000000000 %
b110000000000000001000000000 2
b110000000000000001000000000 C
b110000000000000001000000000 f
b110000000000000001000000000 s
b111 #"
b111 0"
b1000000 w
b1000000 z
b111 *
b111 .
b111 Q
b110 y
b1101100 r
b0 5"
b110110000000000 &
b110110000000000 1
b110110000000000 D
b110110000000000 3"
b100110 "
b100110 4
b100110 A
b100110 2"
b100110 6"
b100110 7"
1+
#200000
b0 G
0U
b111 _
1H
b11 R
b11 V
b11 j
19
b11 8
b11 m
b11 A"
b111 >
b111 X
b111 8"
b11 <
b11 k
b11 :"
0-"
b0 (
b0 0
b0 F
b0 i
b0 +"
0,"
0+
#210000
1'"
1("
b11111001 :
b11111001 @"
b0 K
b0 %"
b1001 #"
b111001 0"
1[
1W
b11111001 *
b11111001 .
b11111001 Q
b11111111111111111111111111111111 q
b10001 $
b10001 3
b10001 B
b10001 b
b10001 e
b10001 o
1p
1\
b111 Z
b11111001 P
b11111001 `
0*"
b100000000000000000 h
b100000000000000000 n
b100000000000000000 g
b111 J
b111 $"
b111 S
b111 T
b111111001 a
b1010 G
0U
b11111001 _
b0 Y
b111 =
b111 9"
b11 ;
b11 l
b11 ;"
1H
b11 R
b11 V
b11 j
09
b0 8
b0 m
b0 A"
b0 >
b0 X
b0 8"
b1 <
b1 k
b1 :"
b10000000000000 w
b10000000000000 z
b1 d
b11 c
b1101 y
b11 {
1}
b11 !"
b11100000100000000000000000 %
b11100000100000000000000000 2
b11100000100000000000000000 C
b11100000100000000000000000 f
b11100000100000000000000000 s
b11010111 r
b1101011100000000 &
b1101011100000000 1
b1101011100000000 D
b1101011100000000 3"
b100111 "
b100111 4
b100111 A
b100111 2"
b100111 6"
b100111 7"
1+
#220000
b1010 G
0U
b11111001 _
1\
1H
b11 R
b11 V
b11 j
b111 =
b111 9"
b11 ;
b11 l
b11 ;"
b1 <
b1 k
b1 :"
1-"
b1010 (
b1010 0
b1010 F
b1010 i
b1010 +"
1,"
0+
#230000
b0 :
b0 @"
b111 K
b111 %"
b0 #"
b0 0"
0("
0'"
b0 *
b0 .
b0 Q
0W
1*"
0[
b0 P
b0 `
b0 Z
b0 J
b0 $"
b0 S
b0 T
b11111111111111111111111111111111 q
b10110 $
b10110 3
b10110 B
b10110 b
b10110 e
b10110 o
1p
b1000 ""
b10000000000000000000000 h
b10000000000000000000000 n
b10000000000000000000000 g
b1 G
1U
b0 _
0\
1t
0H
b0 R
b0 V
b0 j
b0 =
b0 9"
b0 ;
b0 l
b0 ;"
b0 <
b0 k
b0 :"
b1000000000000000 w
b1000000000000000 z
b0 d
b1111 y
b1110000000000000000000000 %
b1110000000000000000000000 2
b1110000000000000000000000 C
b1110000000000000000000000 f
b1110000000000000000000000 s
b11110011 r
b1000 5"
b1111001100001000 &
b1111001100001000 1
b1111001100001000 D
b1111001100001000 3"
b101000 "
b101000 4
b101000 A
b101000 2"
b101000 6"
b101000 7"
1+
#240000
0+
#250000
b111 :
b111 @"
b0 a
17
b10 R
b10 V
b10 j
1N
19
b10 8
b10 m
b10 A"
b1 <
b1 k
b1 :"
0#
0@
b11111111111111111111111111111111 q
b1100 $
b1100 3
b1100 B
b1100 b
b1100 e
b1100 o
1p
0t
b1000000000000 h
b1000000000000 n
b1000000000000 g
b1000000000 w
b1000000000 z
b0 ""
b10 d
b1 c
b1001 y
b1 {
b1 !"
b100100000000001000000000000 %
b100100000000001000000000000 2
b100100000000001000000000000 C
b100100000000001000000000000 f
b100100000000001000000000000 s
b10011001 r
b0 5"
b1001100100000000 &
b1001100100000000 1
b1001100100000000 D
b1001100100000000 3"
b101001 "
b101001 4
b101001 A
b101001 2"
b101001 6"
b101001 7"
1+
#260000
b111000001110000000000000000 !
b111000001110000000000000000 6
b111 >"
0+
#270000
b11 :
b11 @"
b11 K
b11 %"
b1 #"
b1 0"
b1 *
b1 .
b1 Q
b1 P
b1 `
0*"
17
b10 R
b10 V
b10 j
1N
19
b11 8
b11 m
b11 A"
b1 <
b1 k
b1 :"
b0 G
0U
b1 _
b1 a
b1 Z
b11 d
b1 S
b1 T
b110100000000001000000000000 %
b110100000000001000000000000 2
b110100000000001000000000000 C
b110100000000001000000000000 f
b110100000000001000000000000 s
b10011101 r
b1 5"
b1001110100000001 &
b1001110100000001 1
b1001110100000001 D
b1001110100000001 3"
b101010 "
b101010 4
b101010 A
b101010 2"
b101010 6"
b101010 7"
1+
#280000
b11000001110000000000000000 !
b11000001110000000000000000 6
b11 ?"
0+
#290000
1("
1'"
1W
1[
1\
b111 J
b111 $"
b11111100 :
b11111100 @"
1H
b111 =
b111 9"
b10 ;
b10 l
b10 ;"
b0 K
b0 %"
b1100 #"
b111100 0"
b11111111111111111111111111111111 q
b10001 $
b10001 3
b10001 B
b10001 b
b10001 e
b10001 o
1p
b11111100 *
b11111100 .
b11111100 Q
b100000000000000000 h
b100000000000000000 n
b100000000000000000 g
b11 Y
b11111100 P
b11111100 `
0*"
b11 >
b11 X
b11 8"
07
b11 R
b11 V
b11 j
0N
09
b0 8
b0 m
b0 A"
b11 <
b11 k
b11 :"
b111111100 a
b1010 G
0U
b11111100 _
b111 Z
b10000000000000 w
b10000000000000 z
b10 c
b111 S
b111 T
b1101 y
b10 {
0}
b10 !"
b111000000100000000000000000 %
b111000000100000000000000000 2
b111000000100000000000000000 C
b111000000100000000000000000 f
b111000000100000000000000000 s
b11011110 r
b0 5"
b1101111000000000 &
b1101111000000000 1
b1101111000000000 D
b1101111000000000 3"
b101011 "
b101011 4
b101011 A
b101011 2"
b101011 6"
b101011 7"
1+
#300000
0+
#310000
b111 K
b111 %"
0("
0'"
0W
1*"
0[
b0 :
b0 @"
b0 #"
b0 0"
b0 *
b0 .
b0 Q
b11111111111111111111111111111111 q
b10110 $
b10110 3
b10110 B
b10110 b
b10110 e
b10110 o
1p
b0 Z
b0 P
b0 `
b1000 ""
b10000000000000000000000 h
b10000000000000000000000 n
b10000000000000000000000 g
b0 J
b0 $"
b0 S
b0 T
b111111101 a
b1 G
1U
b0 _
0\
b0 Y
1t
0H
b0 R
b0 V
b0 j
b0 =
b0 9"
b0 ;
b0 l
b0 ;"
b0 >
b0 X
b0 8"
b0 <
b0 k
b0 :"
b1000000000000000 w
b1000000000000000 z
b0 d
b11 c
b1111 y
b11 {
1}
b11 !"
b1110000000000000000000000 %
b1110000000000000000000000 2
b1110000000000000000000000 C
b1110000000000000000000000 f
b1110000000000000000000000 s
b11110011 r
b10 5"
b1111001100000010 &
b1111001100000010 1
b1111001100000010 D
b1111001100000010 3"
b101100 "
b101100 4
b101100 A
b101100 2"
b101100 6"
b101100 7"
1+
#320000
0+
#330000
b0 :
b0 @"
b111 K
b111 %"
b0 #"
b0 0"
b0 *
b0 .
b0 Q
b0 P
b0 `
1*"
b1 G
1U
b0 _
b0 a
b0 Z
b11 J
b11 $"
b0 S
b0 T
1I
b10 R
b10 V
b10 j
1N
b11 =
b11 9"
b11 ;
b11 l
b11 ;"
b1 <
b1 k
b1 :"
0#
0@
b11111111111111111111111111111111 q
b1110 $
b1110 3
b1110 B
b1110 b
b1110 e
b1110 o
1p
0t
b100000000000000 h
b100000000000000 n
b100000000000000 g
b100000000000 w
b100000000000 z
b0 ""
b11 d
b1 c
b1011 y
b1 {
b1 !"
b110100000000100000000000000 %
b110100000000100000000000000 2
b110100000000100000000000000 C
b110100000000100000000000000 f
b110100000000100000000000000 s
b10111101 r
b0 5"
b1011110100000000 &
b1011110100000000 1
b1011110100000000 D
b1011110100000000 3"
b101101 "
b101101 4
b101101 A
b101101 2"
b101101 6"
b101101 7"
1+
#340000
0+
#350000
b1 :
b1 @"
b1 #"
b1 0"
b1 *
b1 .
b1 Q
b111 J
b111 $"
b1 P
b1 `
0*"
1I
b10 R
b10 V
b10 j
1N
b111 =
b111 9"
b10 ;
b10 l
b10 ;"
b1 <
b1 k
b1 :"
b0 G
0U
b1 _
b1 a
b1 Z
b10 d
b1 S
b1 T
b100100000000100000000000000 %
b100100000000100000000000000 2
b100100000000100000000000000 C
b100100000000100000000000000 f
b100100000000100000000000000 s
b10111001 r
b1 5"
b1011100100000001 &
b1011100100000001 1
b1011100100000001 D
b1011100100000001 3"
b1110000100000000101000001000000011000000001000000100000001100000011 )
b1110000100000000101000001000000011000000001000000100000001100000011 /
b1110000100000000101000001000000011000000001000000100000001100000011 M
b1110000100000000101000001000000011000000001000000100000001100000011 &"
b11 K
b11 %"
b101110 "
b101110 4
b101110 A
b101110 2"
b101110 6"
b101110 7"
1+
#360000
0+
#370000
1H
19
b1 8
b1 m
b1 A"
b11111111111111111111111111111111 q
b1000 $
b1000 3
b1000 B
b1000 b
b1000 e
b1000 o
1p
b100000000 h
b100000000 n
b100000000 g
b0 G
0U
b1 _
b0 J
b0 $"
0I
b10 R
b10 V
b10 j
1N
b0 =
b0 9"
b0 ;
b0 l
b0 ;"
b1 <
b1 k
b1 :"
b100000 w
b100000 z
b1 d
b0 c
b101 y
b0 {
0}
b0 !"
b10000000000000000100000000 %
b10000000000000000100000000 2
b10000000000000000100000000 C
b10000000000000000100000000 f
b10000000000000000100000000 s
b1010100 r
b101010000000001 &
b101010000000001 1
b101010000000001 D
b101010000000001 3"
b1110000100000000101000001000000011000000001000000100000011100000011 )
b1110000100000000101000001000000011000000001000000100000011100000011 /
b1110000100000000101000001000000011000000001000000100000011100000011 M
b1110000100000000101000001000000011000000001000000100000011100000011 &"
b111 K
b111 %"
b101111 "
b101111 4
b101111 A
b101111 2"
b101111 6"
b101111 7"
1+
#380000
b10 :
b10 @"
b10 K
b10 %"
b10 #"
b10 0"
b10 *
b10 .
b10 Q
b10 P
b10 `
1H
b10 R
b10 V
b10 j
1N
19
b1 8
b1 m
b1 A"
b1 <
b1 k
b1 :"
b10 a
b0 G
0U
b10 _
b1 Y
0-"
b0 (
b0 0
b0 F
b0 i
b0 +"
0,"
b1 >
b1 X
b1 8"
b11000001110000000100000000 !
b11000001110000000100000000 6
b1 ="
0+
#390000
1*"
1#
1@
b0 :
b0 @"
b11 K
b11 %"
b0 #"
b0 0"
b11111111111111111111111111111111 q
b10010 $
b10010 3
b10010 B
b10010 b
b10010 e
b10010 o
1p
0("
b0 *
b0 .
b0 Q
b1000000000000000000 h
b1000000000000000000 n
b1000000000000000000 g
b0 Y
0W
b0 P
b0 `
0H
b0 R
b0 V
b0 j
0N
09
b0 8
b0 m
b0 A"
b0 >
b0 X
b0 8"
b0 <
b0 k
b0 :"
b11110100 a
b1 G
1U
b0 _
b0 Z
b100000000000000 w
b100000000000000 z
b0 d
b0 S
b0 T
b1110 y
b1000000000000000000 %
b1000000000000000000 2
b1000000000000000000 C
b1000000000000000000 f
b1000000000000000000 s
b11100000 r
b110100 5"
b1110000011110100 &
b1110000011110100 1
b1110000011110100 D
b1110000011110100 3"
b110000 "
b110000 4
b110000 A
b110000 2"
b110000 6"
b110000 7"
1+
#400000
0+
#410000
b111 K
b111 %"
b1000 #"
b1000 0"
b111 :
b111 @"
b1000 *
b1000 .
b1000 Q
17
1O
19
b11 8
b11 m
b11 A"
b11111111111111111111111111111111 q
b1011 $
b1011 3
b1011 B
b1011 b
b1011 e
b1011 o
1p
b100000000000 h
b100000000000 n
b100000000000 g
0#
0@
b100000000 w
b100000000 z
b11 d
b1000 y
b110000000000000100000000000 %
b110000000000000100000000000 2
b110000000000000100000000000 C
b110000000000000100000000000 f
b110000000000000100000000000 s
b10001100 r
b1000 5"
b1000110000001000 &
b1000110000001000 1
b1000110000001000 D
b1000110000001000 3"
b100101 "
b100101 4
b100101 A
b100101 2"
b100101 6"
b100101 7"
1+
#420000
b111000001110000000100000000 !
b111000001110000000100000000 6
b111 ?"
0+
#430000
b111 P
b111 `
0*"
b0 G
0U
b111 _
b111 a
b111 Y
1H
b11 R
b11 V
b11 j
b111 >
b111 X
b111 8"
b11 <
b11 k
b11 :"
07
0O
19
b11 8
b11 m
b11 A"
b11111111111111111111111111111111 q
b1001 $
b1001 3
b1001 B
b1001 b
b1001 e
b1001 o
1p
b1000000000 h
b1000000000 n
b1000000000 g
b111 :
b111 @"
b110000000000000001000000000 %
b110000000000000001000000000 2
b110000000000000001000000000 C
b110000000000000001000000000 f
b110000000000000001000000000 s
b1000 K
b1000 %"
b111 #"
b111 0"
b1000000 w
b1000000 z
b111 *
b111 .
b111 Q
b110 y
b1101100 r
b0 5"
b110110000000000 &
b110110000000000 1
b110110000000000 D
b110110000000000 3"
b100110 "
b100110 4
b100110 A
b100110 2"
b100110 6"
b100110 7"
1+
#440000
0+
#450000
1("
1'"
b11111010 :
b11111010 @"
b0 K
b0 %"
b1010 #"
b111010 0"
1W
1[
b11111010 *
b11111010 .
b11111010 Q
b11111111111111111111111111111111 q
b10001 $
b10001 3
b10001 B
b10001 b
b10001 e
b10001 o
1p
1\
b111 Z
b11111010 P
b11111010 `
b100000000000000000 h
b100000000000000000 n
b100000000000000000 g
b111 J
b111 $"
b111 S
b111 T
b111111010 a
b1010 G
0U
b11111010 _
b1 Y
b111 =
b111 9"
b11 ;
b11 l
b11 ;"
1H
b11 R
b11 V
b11 j
09
b0 8
b0 m
b0 A"
b1 >
b1 X
b1 8"
b1 <
b1 k
b1 :"
b10000000000000 w
b10000000000000 z
b1 d
b11 c
b1101 y
b11 {
1}
b11 !"
b11100000100000000000000000 %
b11100000100000000000000000 2
b11100000100000000000000000 C
b11100000100000000000000000 f
b11100000100000000000000000 s
b11010111 r
b1101011100000000 &
b1101011100000000 1
b1101011100000000 D
b1101011100000000 3"
b100111 "
b100111 4
b100111 A
b100111 2"
b100111 6"
b100111 7"
1+
#460000
b1010 G
0U
b11111010 _
1\
1H
b11 R
b11 V
b11 j
b111 =
b111 9"
b11 ;
b11 l
b11 ;"
b1 >
b1 X
b1 8"
b1 <
b1 k
b1 :"
1-"
b1010 (
b1010 0
b1010 F
b1010 i
b1010 +"
1,"
0+
#470000
b11 K
b11 %"
0("
0'"
0W
1*"
0[
b0 Z
b0 J
b0 $"
b0 S
b0 T
b0 :
b0 @"
b0 #"
b0 0"
b0 *
b0 .
b0 Q
b11111111111111111111111111111111 q
b10110 $
b10110 3
b10110 B
b10110 b
b10110 e
b10110 o
1p
b0 P
b0 `
b1000 ""
b10000000000000000000000 h
b10000000000000000000000 n
b10000000000000000000000 g
b111111001 a
b1 G
1U
b0 _
0\
b0 Y
1t
0H
b0 R
b0 V
b0 j
b0 =
b0 9"
b0 ;
b0 l
b0 ;"
b0 >
b0 X
b0 8"
b0 <
b0 k
b0 :"
b1000000000000000 w
b1000000000000000 z
b0 d
b1111 y
b1110000000000000000000000 %
b1110000000000000000000000 2
b1110000000000000000000000 C
b1110000000000000000000000 f
b1110000000000000000000000 s
b11110011 r
b1000 5"
b1111001100001000 &
b1111001100001000 1
b1111001100001000 D
b1111001100001000 3"
b101000 "
b101000 4
b101000 A
b101000 2"
b101000 6"
b101000 7"
1+
#480000
0+
